Peer-graded Assignment: Course Project 1
…
## [1] 2304

2.Devise a strategy for filling in all of the missing values in the dataset. The strategy does not need to be sophisticated. For example, you could use the mean/median for that day, or the mean for that 5-minute interval, etc.

Imputing using mean from a specific data is not feasible as data does not exist for a particular date with missing values. So Im imputing using a mean for the whole variable

dat <- data
A <- dat %>% 
       group_by(date) %>% 
       mutate(steps = ifelse(is.na(steps), 
                              mean(steps, na.rm=TRUE), steps))
A

## # A tibble: 17,568 x 3
## # Groups:   date [61]
##    steps date       interval
##    <dbl> <chr>         <int>
##  1   NaN 2012-10-01        0
##  2   NaN 2012-10-01        5
##  3   NaN 2012-10-01       10
##  4   NaN 2012-10-01       15
##  5   NaN 2012-10-01       20
##  6   NaN 2012-10-01       25
##  7   NaN 2012-10-01       30
##  8   NaN 2012-10-01       35
##  9   NaN 2012-10-01       40
## 10   NaN 2012-10-01       45
## #  with 17,558 more rows
…
